192.168.17.1 - - [31/Mar/2024:14:41:27 +0400] "GET / HTTP/1.1" 200 11239
192.168.17.1 - - [31/Mar/2024:14:41:27 +0400] "GET /tomcat.svg HTTP/1.1" 200 67795
192.168.17.1 - - [31/Mar/2024:14:41:27 +0400] "GET /tomcat.css HTTP/1.1" 200 5584
192.168.17.1 - - [31/Mar/2024:14:41:27 +0400] "GET /asf-logo-wide.svg HTTP/1.1" 200 27235
192.168.17.1 - - [31/Mar/2024:14:41:27 +0400] "GET /bg-nav.png HTTP/1.1" 200 1401
192.168.17.1 - - [31/Mar/2024:14:41:27 +0400] "GET /bg-button.png HTTP/1.1" 200 713
192.168.17.1 - - [31/Mar/2024:14:41:27 +0400] "GET /bg-upper.png HTTP/1.1" 200 3103
192.168.17.1 - - [31/Mar/2024:14:41:27 +0400] "GET /bg-middle.png HTTP/1.1" 200 1918
192.168.17.1 - - [31/Mar/2024:14:41:27 +0400] "GET /favicon.ico HTTP/1.1" 200 21630
192.168.17.1 - - [31/Mar/2024:15:22:58 +0400] "GET / HTTP/1.1" 200 11239
192.168.17.1 - - [31/Mar/2024:15:23:49 +0400] "GET / HTTP/1.1" 200 11239
192.168.17.1 - - [31/Mar/2024:15:25:07 +0400] "GET / HTTP/1.1" 200 11239
192.168.17.1 - - [31/Mar/2024:15:28:47 +0400] "GET /app HTTP/1.1" 302 -
192.168.17.1 - - [31/Mar/2024:15:28:49 +0400] "GET /app/ HTTP/1.1" 200 97591
192.168.17.1 - - [31/Mar/2024:15:34:56 +0400] "GET /lab HTTP/1.1" 302 -
192.168.17.1 - - [31/Mar/2024:15:34:56 +0400] "GET /lab/ HTTP/1.1" 200 304
192.168.17.1 - - [31/Mar/2024:15:35:00 +0400] "GET /lab/inputform.jsp HTTP/1.1" 200 1366
192.168.17.1 - - [31/Mar/2024:15:35:19 +0400] "GET /app HTTP/1.1" 302 -
192.168.17.1 - - [31/Mar/2024:15:35:19 +0400] "GET /app/ HTTP/1.1" 200 97591
192.168.17.1 - - [31/Mar/2024:15:36:02 +0400] "GET /lab HTTP/1.1" 302 -
192.168.17.1 - - [31/Mar/2024:15:36:04 +0400] "GET /lab/inputform.jsp HTTP/1.1" 200 1366
