192.168.17.1 - - [01/Apr/2024:21:21:47 +0400] "GET /lab HTTP/1.1" 302 -
192.168.17.1 - - [01/Apr/2024:21:21:52 +0400] "GET / HTTP/1.1" 200 11239
192.168.17.1 - - [01/Apr/2024:21:21:52 +0400] "GET /tomcat.css HTTP/1.1" 304 -
192.168.17.1 - - [01/Apr/2024:21:21:52 +0400] "GET /bg-nav.png HTTP/1.1" 304 -
192.168.17.1 - - [01/Apr/2024:21:21:52 +0400] "GET /bg-upper.png HTTP/1.1" 304 -
192.168.17.1 - - [01/Apr/2024:21:21:52 +0400] "GET /bg-middle.png HTTP/1.1" 304 -
192.168.17.1 - - [01/Apr/2024:21:21:52 +0400] "GET /asf-logo-wide.svg HTTP/1.1" 304 -
192.168.17.1 - - [01/Apr/2024:21:21:52 +0400] "GET /bg-button.png HTTP/1.1" 304 -
192.168.17.1 - - [01/Apr/2024:21:21:52 +0400] "GET /tomcat.svg HTTP/1.1" 304 -
192.168.17.1 - - [01/Apr/2024:22:10:11 +0400] "GET / HTTP/1.1" 200 11239
192.168.17.1 - - [01/Apr/2024:22:10:11 +0400] "GET /tomcat.css HTTP/1.1" 200 5584
192.168.17.1 - - [01/Apr/2024:22:10:11 +0400] "GET /tomcat.svg HTTP/1.1" 200 67795
192.168.17.1 - - [01/Apr/2024:22:10:11 +0400] "GET /bg-nav.png HTTP/1.1" 200 1401
192.168.17.1 - - [01/Apr/2024:22:10:11 +0400] "GET /bg-upper.png HTTP/1.1" 200 3103
192.168.17.1 - - [01/Apr/2024:22:10:11 +0400] "GET /asf-logo-wide.svg HTTP/1.1" 200 27235
192.168.17.1 - - [01/Apr/2024:22:10:11 +0400] "GET /bg-middle.png HTTP/1.1" 200 1918
192.168.17.1 - - [01/Apr/2024:22:10:11 +0400] "GET /bg-button.png HTTP/1.1" 200 713
192.168.17.1 - - [01/Apr/2024:22:10:11 +0400] "GET /favicon.ico HTTP/1.1" 200 21630
192.168.17.1 - - [01/Apr/2024:22:10:15 +0400] "GET /app HTTP/1.1" 302 -
192.168.17.1 - - [01/Apr/2024:22:10:15 +0400] "GET /app/ HTTP/1.1" 200 97591
192.168.17.1 - - [01/Apr/2024:22:10:34 +0400] "GET /app/ HTTP/1.1" 200 97591
192.168.17.1 - - [01/Apr/2024:22:10:35 +0400] "GET /app/ HTTP/1.1" 200 97591
192.168.17.1 - - [01/Apr/2024:22:10:36 +0400] "GET /app/ HTTP/1.1" 200 97591
192.168.17.1 - - [01/Apr/2024:22:10:36 +0400] "GET /app/ HTTP/1.1" 200 97591
192.168.17.1 - - [01/Apr/2024:22:10:36 +0400] "GET /app/ HTTP/1.1" 200 97591
192.168.17.1 - - [01/Apr/2024:22:10:36 +0400] "GET /app/ HTTP/1.1" 200 97591
192.168.17.1 - - [01/Apr/2024:22:10:37 +0400] "GET /app/ HTTP/1.1" 200 97591
192.168.17.1 - - [01/Apr/2024:22:10:37 +0400] "GET /app/ HTTP/1.1" 200 97591
192.168.17.1 - - [01/Apr/2024:22:10:49 +0400] "GET /app/ HTTP/1.1" 200 97591
192.168.17.1 - - [01/Apr/2024:22:10:49 +0400] "GET /app/ HTTP/1.1" 200 97591
192.168.17.1 - - [01/Apr/2024:22:10:50 +0400] "GET /app/ HTTP/1.1" 200 97591
192.168.17.1 - - [01/Apr/2024:22:10:50 +0400] "GET /app/ HTTP/1.1" 200 97591
192.168.17.1 - - [01/Apr/2024:22:10:50 +0400] "GET /app/ HTTP/1.1" 200 97591
192.168.17.1 - - [01/Apr/2024:22:22:08 +0400] "GET /app/ HTTP/1.1" 200 97591
192.168.17.1 - - [01/Apr/2024:22:22:08 +0400] "GET /favicon.ico HTTP/1.1" 304 -
